{
  "Folha de S. Paulo": {
    "domain": "###_br_folha",
    "group": [
      "folha.uol.com.br",
      "blogfolha.uol.com.br"
    ],
    "allow_cookies": 1,
    "block_regex": "(\\.folha\\.uol\\.com\\.br\\/paywall\\/js\\/|paywall\\.folha\\.uol\\.com\\.br\\/|js\\.matheranalytics\\.com\\/|cdn\\.ampproject\\.org\\/v\\d\\/amp-subscriptions-.+\\.js)",
    "useragent": "googlebot",
    "amp_redirect": {
      "paywall": ".revista--interna__assineonly"
    },
    "amp_unhide": 1
  },
  "Foreign Affairs": {
    "domain": "foreignaffairs.com",
    "block_regex": "\\.foreignaffairs\\.com\\/modules\\/custom\\/fa_paywall_js\\/js\\/paywall\\.js"
  },
  "Krautreporter.de": {
    "domain": "krautreporter.de",
    "cs_code": [{
        "cond": ".js-article-paywall",
        "rm_elem": 1,
        "elems": [{
            "cond": ".js-paywall-divider",
            "rm_elem": 1
          }, {
            "cond": "#steady-checkout",
            "rm_elem": 1
          }, {
            "cond": ".blurred",
            "rm_class": "blurred"
          }
        ]
      }
    ]
  },
  "Le Devoir": {
    "domain": "ledevoir.com",
    "block_regex": "\\.tinypass\\.com\\/",
    "remove_cookies_select_drop": ["pw6"]
  },
  "NRC Handelsblad": {
    "domain": "nrc.nl",
    "remove_cookies_select_drop": ["counter"],
    "block_regex": "\\.nrc\\.nl\\/paywall-api\\/api\\/zephr"
  },
  "Saltwire Network": {
    "domain": "saltwire.com",
    "allow_cookies": 1,
    "block_regex": "\\/loader-cdn\\.azureedge\\.net\\/"
  },
  "The Japan Times": {
    "domain": "japantimes.co.jp",
    "block_regex": "cdn\\.cxense\\.com\\/",
    "remove_cookies_select_drop": ["xbc"]
  }
}
